Name,Place,Division,Sex,Equipment,WeightClassKg,BodyweightKg,Age,Best3SquatKg,Squat4Kg,Best3BenchKg,Bench4Kg,Best3DeadliftKg,Deadlift4Kg,TotalKg,Event
Nicole Stevens,1,Juniors 16-17,F,Raw,56,55.79,16,75,,40,,100,107.5,215,SBD
Muneyong Van Luen,1,Submasters 35-39,F,Raw,56,52.53,35,105,,47.5,,120,,272.5,SBD
Janine Jadallah,1,Open,F,Raw,67.5,63.50,46,92.5,,57.5,,137.5,,287.5,SBD
Tori Aletheia,2,Open,F,Raw,67.5,63.14,26,80,,60,,115,,255,SBD
Janine Jadallah,1,Masters 45-49,F,Raw,67.5,63.50,46,92.5,,57.5,,137.5,,287.5,SBD
Hilary Schiraldi,1,Open,F,Raw,75,67.68,33,75,,40,,87.5,,202.5,SBD
Becky McCully,DQ,Open,F,Raw,75,74.66,36,117.5,,-52.5,,,,,SBD
Becky McCully,DQ,Submasters 35-39,F,Raw,75,74.66,36,117.5,,-52.5,,,,,SBD
Gracie Salas,1,Masters 45-49,F,Raw,75,71.49,46,65,,52.5,,102.5,,220,SBD
Mitzi Kuhns,1,Masters 55-59,F,Raw,75,73.71,58,67.5,,40,,85,,192.5,SBD
Patrica Butler,1,Masters 60-64,F,Raw,90,86.64,62,62.5,,52.5,,80,,195,SBD
Jessica Birrer,1,Open,F,Raw,90+,95.07,31,110,,67.5,,130,,307.5,SBD
Mirro Bidanian,1,Juniors 13-15,M,Raw,56,55.88,15,65,,50,,102.5,,217.5,SBD
Michael Kirk,1,Juniors 18-19,M,Raw,67.5,64.14,18,125,130.5,85,,157.5,,367.5,SBD
Carlito Bareng,1,Open,M,Raw,67.5,66.77,32,192.5,195,132.5,,215,,540,SBD
Ruben Loza,2,Open,M,Raw,67.5,63.32,30,132.5,,82.5,,172.5,,387.5,SBD
Adam Hoffman,3,Open,M,Raw,67.5,66.59,24,140,,92.5,,147.5,,380,SBD
Gustavo Garcia,1,Juniors 18-19,M,Raw,75,71.58,19,132.5,,105,,187.5,,425,SBD
Richard Stevens #3,2,Juniors 18-19,M,Raw,75,70.94,18,97.5,,87.5,,150,,335,SBD
Frank Gallagher,1,Open,M,Raw,75,74.57,30,185.5,,120,,252.5,,558,SBD
Jerit Daley,2,Open,M,Raw,75,74.39,26,155,,115,,200,,470,SBD
Gary Slater,1,Masters 40-44,M,Raw,75,73.66,40,205.5,,145,,221.5,,572,SBD
Jeffrey Stanley,1,Masters 50-54,M,Raw,75,73.30,53,140,,102.5,,220,,462.5,SBD
Ryan Cordano,1,Juniors 18-19,M,Raw,82.5,81.47,19,190,,125,,265,,580,SBD
Gustavo Gonzales,1,Open,M,Raw,82.5,79.83,32,175,,125,,220,,520,SBD
Bryce Wat,2,Open,M,Raw,82.5,79.02,26,192.5,,112.5,,200,,505,SBD
Mike Kaplan,3,Open,M,Raw,82.5,81.28,55,152.5,,112.5,,200,,465,SBD
Walt Butler,1,Masters 60-64,M,Raw,82.5,77.29,64,77.5,,57.5,,92.5,,227.5,SBD
Daniel Ramirez #5,1,Juniors 16-17,M,Raw,90,83.46,17,117.5,,85,,160,,362.5,SBD
Antonio Machuca,1,Open,M,Raw,90,88.72,31,205,,147.5,,290,,642.5,SBD
Gradie Foster,2,Open,M,Raw,90,84.37,25,160,,115,,215,,490,SBD
Dan Harvey,3,Open,M,Raw,90,89.27,52,140,,110,,200,,450,SBD
Dan Harvey,1,Masters 50-54,M,Raw,90,89.27,52,140,,110,,200,,450,SBD
Omar Cortez,1,Juniors 20-23,M,Raw,100,97.16,23,182.5,,132.5,,207.5,,522.5,SBD
Jeremy Smith #6,1,Open,M,Raw,100,91.99,26,155,,87.5,,212.5,,455,SBD
Johnny Armstrong,1,Juniors 16-17,M,Raw,110,107.95,16,122.5,,137.5,142.5,187.5,,447.5,SBD
Jason Moran,1,Open,M,Raw,110,102.24,34,185,,145,,230,,560,SBD
Thomas Stallings,2,Open,M,Raw,110,107.32,53,187.5,,165,,205,,557.5,SBD
Thomas Campitelli,3,Open,M,Raw,110,106.96,34,180,,125,,222.5,,527.5,SBD
Thomas Stallings,1,Masters 50-54,M,Raw,110,107.32,53,187.5,,165,,205,,557.5,SBD
Matt Gomez,1,Open,M,Raw,125,122.29,25,255,,190,,277.5,,722.5,SBD
Cox Thornton,1,Submasters 35-39,M,Raw,140,132.18,35,150,,112.5,,157.5,,420,SBD
Julie Monette,1,Open,F,Wraps,48,46.08,34,80,,47.5,,105,,232.5,SBD
Joseph Jano,1,Masters 40-44,M,Wraps,140,132.72,44,237.5,,165,,232.5,,635,SBD
Cassy Krause,1,Masters 55-59,F,Single-ply,67.5,65.77,56,112.5,,58,,120,122.5,290.5,SBD
Sylvia Nix,1,Open,F,Single-ply,75,68.22,42,147.5,,70,,152.5,,370,SBD
Sylvia Nix,1,Masters 40-44,F,Single-ply,75,68.22,42,147.5,,70,,152.5,,370,SBD
Misael Peraza,1,Open,M,Single-ply,90,89.36,24,260,,175,,247.5,,682.5,SBD
Dennis Cannataro,1,Masters 50-54,M,Single-ply,90,88.99,54,140,,167.5,,157.5,,465,SBD
Anto Bidanian,1,Juniors 16-17,M,Single-ply,100,95.71,17,172.5,,125,,160,,457.5,SBD
Hubbel Richmond,1,Juniors 20-23,M,Single-ply,100,97.16,23,282.5,,208,,285,,775.5,SBD
Hubbel Richmond,1,Open,M,Single-ply,100,97.16,23,282.5,,208,,285,,775.5,SBD
Michael Musto,1,Masters 55-59,M,Single-ply,100,98.61,56,287.5,,200,,265,,752.5,SBD
Rupert Prout,1,Juniors 20-23,M,Single-ply,110,107.86,22,227.5,,157.5,,277.5,,662.5,SBD
Dante Giorgetti,DQ,Open,M,Single-ply,110,105.87,27,-317.5,,,,,,,SBD
Nick Harrison,1,Open,M,Single-ply,125,117.12,29,300,,215,,282.5,,797.5,SBD
Bryant Ayers,2,Open,M,Single-ply,125,114.49,38,240,,200,,242.5,,682.5,SBD
Bryant Ayers,1,Submasters 35-39,M,Single-ply,125,114.49,38,240,,200,,242.5,,682.5,SBD
Evangeline Keresey,1,Masters 70-74,F,Multi-ply,67.5,64.32,71,80,,45,,115,,240,SBD
Bruce Mendoza,1,Open,M,Multi-ply,90,89.18,43,277.5,,75,,252.5,,605,SBD
Cliff Rogers,1,Open,M,Multi-ply,110,108.68,37,365,,305,,285,,955,SBD
Darrell Copeland,2,Open,M,Multi-ply,110,101.99,50,250,,227.5,,240,,717.5,SBD
Marcus Wild,1,Open,M,Multi-ply,125,115.76,35,332.5,,262.5,,312.5,,907.5,SBD
Rich Manley,2,Open,M,Multi-ply,125,122.29,28,305,,205,,260,,770,SBD
Bill McEwen,DQ,Open,M,Multi-ply,125,116.21,58,-192.5,,,,,,,SBD
Bill Newman,1,Open,M,Multi-ply,140,139.89,28,387.5,,312.5,,325,,1025,SBD
Andreas Gallagher,DQ,Open,M,Multi-ply,140,130.63,30,-457.5,,,,,,,SBD
Victoria Heriford,1,Juniors 16-17,F,Raw,82.5,76.57,16,,,50,,,,50,B
Michael Thomas,1,Masters 40-44,M,Raw,90,89.18,41,,,180,,,,180,B
Robert Heriford,1,Masters 65-69,M,Raw,90,86.82,67,,,122.5,,,,122.5,B
Stacy Dedrick,1,Masters 45-49,M,Raw,100,97.61,46,,,215,,,,215,B
Miguel Macias,1,Juniors 18-19,M,Raw,140,125.46,18,,,130,,,,130,B
Brian Meek,1,Open,M,Raw,140,128.00,28,,,175,,,,175,B
Sue Vaterlaus,1,Masters 55-59,F,Single-ply,90+,103.06,57,,,95,,,,95,B
Bob Levering,1,Masters 50-54,M,Single-ply,90,87.91,51,,,192.5,,,,192.5,B
Stacy Dedrick,1,Masters 45-49,M,Single-ply,100,97.61,46,,,235,,,,235,B
Tommy Nguyen,1,Open,M,Single-ply,110,105.41,26,,,232.5,,,,232.5,B
Jacob Rothenberg,2,Open,M,Single-ply,110,106.59,24,,,185,,,,185,B
Victoria Heriford,1,Juniors 16-17,F,Raw,82.5,76.57,16,,,,,107.5,112.5,107.5,D
Arjun Baindur,1,Open,M,Raw,75,71.30,25,,,,,160,,160,D
Robert Heriford,1,Masters 65-69,M,Raw,90,86.82,67,,,,,160,,160,D
Stacy Dedrick,DQ,Open,M,Raw,100,97.61,46,,,,,-152.5,,,D
Karim Rasool,1,Masters 45-49,M,Raw,110,106.14,45,,,,,260,,260,D
Alison Barnhill,1,Masters 45-49,F,Single-ply,60,58.97,49,,,,,138,,138,D
Kaylin Kullman,1,Juniors 13-15,M,Single-ply,82.5,82.19,13,,,,,110,,110,D
Javier Estrada,1,Juniors 16-17,M,Raw,52,50.53,16,,,35,,50,,85,BD
Ryan Palmieri,1,Juniors 16-17,M,Raw,60,57.52,16,,,67.5,70,125,130,192.5,BD
Joshua Lanham,1,Juniors 18-19,M,Raw,67.5,66.77,19,,,137.5,,162.5,,300,BD
Salvatore Morabito,1,Masters 70-74,M,Raw,67.5,67.13,70,,,73,,140,,213,BD
Mike Tiktinsky,1,Masters 65-69,M,Raw,100,96.80,65,,,92.5,,102.5,,195,BD
Johnny Armstrong,1,Juniors 16-17,M,Raw,110,109.68,16,,,140,,185,190.5,325,BD
